{
  "name": "com-wui-framework-microcore",
  "description": "Engine that provides web browser with off-screen rendering based in Chromium Embedded Framework",
  "version": "2018.0.4.alpha",
  "private": false,
  "homepage": "www.nxp.com",
  "author": {
    "name": "Karel Burda",
    "email": "karel.burda@nxp.com"
  },
  "contributors": [
    {
      "name": "Martin Knotek",
      "email": "martin.knotek@nxp.com"
    }
  ],
  "license": "Copyright (c) 2016 Freescale Semiconductor, Inc., Copyright (c) 2017-2018 NXP. The BSD-3-Clause license for this file can be found in the LICENSE.txt file included with this distribution or at https://spdx.org/licenses/BSD-3-Clause.html#licenseText.",
  "repository": {
    "type": "git",
    "url": "https://bitbucket.org/wuiframework/microcore.git"
  },
  "dependencies": {
    "com-wui-framework-xcppcommons": "git+https://bitbucket.org/wuiframework/com-wui-framework-xcppcommons.git#develop",
    "cef": {
      "version": "3.3396.1782",
      "location": {
        "type": "file",
        "path": "http://opensource.spotify.com/cefbuilds/cef_binary_3.3396.1782.gc368dbf_windows32.tar.bz2"
      },
      "configure-script": {
        "name": "cef_configure.cmake"
      }
    },
    "com-wui-framework-microcore-msvc": {
      "version": "2018.1.1",
      "location": {
        "type": "file",
        "path": "https://cloud.wuiframework.com/com-wui-framework-microcore-msvc.zip"
      },
      "install-script": {
        "name": "com-wui-framework-microcore-msvc_install.js"
      },
      "platforms": "win"
    }
  },
  "loaderClass": "Com.Wui.Framework.Microcore.Loader",
  "target": {
    "name": "WuiMicrocore",
    "companyName": "NXP",
    "copyright": "Copyright (c) 2018 NXP",
    "icon": "resource/graphics/icon.ico",
    "resources": [
      {
        "input": "resource/graphics/icon.ico",
        "embed": true
      },
      {
        "input": "dependencies/cef/Resources/locales/en-us.pak",
        "output": "locales/*"
      },
      {
        "input": "dependencies/cef/Resources/cef.pak",
        "output": "/*"
      },
      {
        "input": "dependencies/cef/Resources/icudtl.dat",
        "output": "/*"
      },
      {
        "input": "dependencies/cef/Resources/cef_100_percent.pak",
        "output": "/*"
      },
      {
        "input": "dependencies/cef/Resources/cef_200_percent.pak",
        "output": "/*"
      },
      {
        "input": "dependencies/cef/Resources/devtools_resources.pak",
        "output": "/*"
      },
      {
        "input": "dependencies/com-wui-framework-microcore-msvc/com-wui-framework-microcore-msvc.dll",
        "output": "/*",
        "platforms": "win"
      },
      {
        "input": "resource/configs/default.config.jsonp",
        "embed": true
      }
    ]
  }
}
